{
  "name": "Better Descriptions Arrive",
  "description": "Replace regular pickup text with logbook descriptions",
  "internalname": "better_descriptions_arrive",
  "version": "1.0.0",
  "author": "ArtixBTW",
  "mpcompat": true
}

